C:\Users\Sujata\eclipse-workspace\RestAssured_reference_TestNG\src\TestDelivery_package\TCDPut_class.java
C:\Users\Sujata\eclipse-workspace\RestAssured_reference_TestNG\src\Endpoint_Package\EGet_request.java
C:\Users\Sujata\eclipse-workspace\RestAssured_reference_TestNG\src\Repository_package\RPut_request.java
C:\Users\Sujata\eclipse-workspace\RestAssured_reference_TestNG\src\Repository_package\RPatch_Request.java
C:\Users\Sujata\eclipse-workspace\RestAssured_reference_TestNG\src\CommonUtility_method\Api_logs_handle.java
C:\Users\Sujata\eclipse-workspace\RestAssured_reference_TestNG\src\API_common_methods\Common_method_handle_API.java
C:\Users\Sujata\eclipse-workspace\RestAssured_reference_TestNG\src\CommonUtility_method\ExtentListnerClass.java
C:\Users\Sujata\eclipse-workspace\RestAssured_reference_TestNG\src\Endpoint_Package\EPut_Request.java
C:\Users\Sujata\eclipse-workspace\RestAssured_reference_TestNG\src\Repository_package\RPost_Requset.java
C:\Users\Sujata\eclipse-workspace\RestAssured_reference_TestNG\src\CommonUtility_method\Excel_data_extractor.java
C:\Users\Sujata\eclipse-workspace\RestAssured_reference_TestNG\src\Endpoint_Package\EPatch_Request.java
C:\Users\Sujata\eclipse-workspace\RestAssured_reference_TestNG\src\Endpoint_Package\EPostRequest_class.java
C:\Users\Sujata\eclipse-workspace\RestAssured_reference_TestNG\src\TestDelivery_package\TCDGet_class.java
C:\Users\Sujata\eclipse-workspace\RestAssured_reference_TestNG\src\TestDelivery_package\TestCaseDelivery_class.java
C:\Users\Sujata\eclipse-workspace\RestAssured_reference_TestNG\src\CommonUtility_method\Dir_Handle.java
C:\Users\Sujata\eclipse-workspace\RestAssured_reference_TestNG\src\TestDelivery_package\TCDPatch_class.java
C:\Users\Sujata\eclipse-workspace\RestAssured_reference_TestNG\src\TestDelivery_package\TCDPost_class.java
